%YAML 1.1
%TAG !u! tag:unity3d.com,2011:
--- !u!74 &7400000
AnimationClip:
  m_ObjectHideFlags: 0
  m_CorrespondingSourceObject: {fileID: 0}
  m_PrefabInstance: {fileID: 0}
  m_PrefabAsset: {fileID: 0}
  m_Name: win
  serializedVersion: 6
  m_Legacy: 0
  m_Compressed: 0
  m_UseHighQualityCurve: 1
  m_RotationCurves: []
  m_CompressedRotationCurves: []
  m_EulerCurves: []
  m_PositionCurves: []
  m_ScaleCurves: []
  m_FloatCurves: []
  m_PPtrCurves:
  - curve:
    - time: 0
      value: {fileID: 21300000, guid: 11aab7290be5a664fa6c03507068c321, type: 3}
    - time: 0.083333336
      value: {fileID: 21300000, guid: afcaedacbbe46db4fa9eaa8e0acc8cc6, type: 3}
    - time: 0.16666667
      value: {fileID: 21300000, guid: a83a9bd5ce7b43845aaf36364686d76d, type: 3}
    - time: 0.25
      value: {fileID: 21300000, guid: bc07ffef524fb8e4cb3751d5cea7830e, type: 3}
    - time: 0.33333334
      value: {fileID: 21300000, guid: dc8db43db5ed9f545b007c5d57ea5d8d, type: 3}
    - time: 0.41666666
      value: {fileID: 21300000, guid: d20705f4c4bd7854782a7fbf9492d8c3, type: 3}
    - time: 0.5
      value: {fileID: 21300000, guid: d00d190b5d1944c438b0dd91084fee93, type: 3}
    - time: 0.5833333
      value: {fileID: 21300000, guid: d0bd15208037f5a42bf875e0de52aabc, type: 3}
    - time: 0.6666667
      value: {fileID: 21300000, guid: 024ab7f8de500d34b9c4a67d156a7fc8, type: 3}
    - time: 0.75
      value: {fileID: 21300000, guid: fca3bc9a929e619448745bca2d443d34, type: 3}
    - time: 0.8333333
      value: {fileID: 21300000, guid: 6d2a5750f8b7ab34b9d4e01db7b8524f, type: 3}
    - time: 0.9166667
      value: {fileID: 21300000, guid: 297052c639f31bd4b9a75f3c9f886b46, type: 3}
    - time: 1
      value: {fileID: 21300000, guid: eec4480156b02434f9fc36956107ed30, type: 3}
    - time: 1.0833334
      value: {fileID: 21300000, guid: 3e650585eb7c3554baf0665eb56a3e04, type: 3}
    - time: 1.1666666
      value: {fileID: 21300000, guid: 9ac50caa764662043bf104d3ca706172, type: 3}
    - time: 1.25
      value: {fileID: 21300000, guid: 256d30f4cce6a9148b7af557f7ad6d59, type: 3}
    - time: 1.3333334
      value: {fileID: 21300000, guid: 289cdad772a83ed47950cb8d2a305099, type: 3}
    - time: 1.4166666
      value: {fileID: 21300000, guid: 418589c007bf43746837d2b042258514, type: 3}
    - time: 1.5
      value: {fileID: 21300000, guid: 88170114dda3f9147a81252615418b01, type: 3}
    - time: 1.5833334
      value: {fileID: 21300000, guid: 39635688faacf044e86d0593f49edc5c, type: 3}
    - time: 1.6666666
      value: {fileID: 21300000, guid: 96f13d8134e3e3c47834187ba1d9a852, type: 3}
    - time: 1.75
      value: {fileID: 21300000, guid: bfb9805ab0c82974ebb10d137f858d58, type: 3}
    - time: 1.8333334
      value: {fileID: 21300000, guid: 019178030e485664d86752e3e90b2dd4, type: 3}
    - time: 1.9166666
      value: {fileID: 21300000, guid: bc93e3b5a1fc33d4eb04d4a2bad32071, type: 3}
    - time: 2
      value: {fileID: 21300000, guid: a3645f6c42cdc6f4b9aa762ac43df1b9, type: 3}
    - time: 2.0833333
      value: {fileID: 21300000, guid: 2d8df748daf26f64fa071b8b7f8af6b3, type: 3}
    - time: 2.1666667
      value: {fileID: 21300000, guid: 1304c0326e114fd468e293a53b3a4398, type: 3}
    - time: 2.25
      value: {fileID: 21300000, guid: 587bdc27bc7cf2c468aecdd52afa0d9d, type: 3}
    - time: 2.3333333
      value: {fileID: 21300000, guid: 108d6a030794f5d468533517e07c8870, type: 3}
    - time: 2.4166667
      value: {fileID: 21300000, guid: b6e7143c29b6b104b9079db6824cd999, type: 3}
    - time: 2.5
      value: {fileID: 21300000, guid: 396e59d40ea62bd4eb6cfcb675c7baf6, type: 3}
    - time: 2.5833333
      value: {fileID: 21300000, guid: a0fd6ab00a32760439ee4dbf9c190f08, type: 3}
    - time: 2.6666667
      value: {fileID: 21300000, guid: 3a9e57f6354b8f1448a26f8855fe0900, type: 3}
    - time: 2.75
      value: {fileID: 21300000, guid: 6df7a190eff90ba43830fb357090acf8, type: 3}
    - time: 2.8333333
      value: {fileID: 21300000, guid: c1697da07017cae448f22e7fcd259c7b, type: 3}
    - time: 2.9166667
      value: {fileID: 21300000, guid: 5fab724bf9256ae48afc15eeaba3e778, type: 3}
    - time: 3
      value: {fileID: 21300000, guid: 5cb1dda4b79cf284ebaa30d40e0d0677, type: 3}
    - time: 3.0833333
      value: {fileID: 21300000, guid: ecdfb45f66c6f9f46b3cf7ebcbf5352e, type: 3}
    - time: 3.1666667
      value: {fileID: 21300000, guid: 9926c504336c6f24cb274e9dfda68436, type: 3}
    - time: 3.25
      value: {fileID: 21300000, guid: 58ad0a7aef7ef7b42983e9b7e799286d, type: 3}
    - time: 3.3333333
      value: {fileID: 21300000, guid: b4ebf69dafd587845af335749eb626ca, type: 3}
    - time: 3.4166667
      value: {fileID: 21300000, guid: 570cf3bed0e7a634f9f574be8f92037a, type: 3}
    - time: 3.5
      value: {fileID: 21300000, guid: 9f87275871b6d1b4d924340016200dda, type: 3}
    - time: 3.5833333
      value: {fileID: 21300000, guid: ec73d8b541b7bc94fba38a30d863a765, type: 3}
    - time: 3.6666667
      value: {fileID: 21300000, guid: f16d0778574369e4790986e7aba0c61f, type: 3}
    - time: 3.75
      value: {fileID: 21300000, guid: 0fbce5b1ab9125e4c820ec60b0c179fe, type: 3}
    - time: 3.8333333
      value: {fileID: 21300000, guid: abd25df140e5c464db0e63ae0a4afffa, type: 3}
    - time: 3.9166667
      value: {fileID: 21300000, guid: 26519a460cc572a42958767613e3140f, type: 3}
    - time: 4
      value: {fileID: 21300000, guid: bfc5027986791d740bf72626773d37cc, type: 3}
    - time: 4.0833335
      value: {fileID: 21300000, guid: 6971a249481b6354488924ca967b1721, type: 3}
    - time: 4.1666665
      value: {fileID: 21300000, guid: 5362de5463763194aa18410fa238e386, type: 3}
    - time: 4.25
      value: {fileID: 21300000, guid: fb844ecf110ffd64cb85187ae614c75d, type: 3}
    - time: 4.3333335
      value: {fileID: 21300000, guid: 873aca5ea1884e04faa804af859a7464, type: 3}
    attribute: m_Sprite
    path: 
    classID: 212
    script: {fileID: 0}
  m_SampleRate: 12
  m_WrapMode: 0
  m_Bounds:
    m_Center: {x: 0, y: 0, z: 0}
    m_Extent: {x: 0, y: 0, z: 0}
  m_ClipBindingConstant:
    genericBindings:
    - serializedVersion: 2
      path: 0
      attribute: 0
      script: {fileID: 0}
      typeID: 212
      customType: 23
      isPPtrCurve: 1
    pptrCurveMapping:
    - {fileID: 21300000, guid: 11aab7290be5a664fa6c03507068c321, type: 3}
    - {fileID: 21300000, guid: afcaedacbbe46db4fa9eaa8e0acc8cc6, type: 3}
    - {fileID: 21300000, guid: a83a9bd5ce7b43845aaf36364686d76d, type: 3}
    - {fileID: 21300000, guid: bc07ffef524fb8e4cb3751d5cea7830e, type: 3}
    - {fileID: 21300000, guid: dc8db43db5ed9f545b007c5d57ea5d8d, type: 3}
    - {fileID: 21300000, guid: d20705f4c4bd7854782a7fbf9492d8c3, type: 3}
    - {fileID: 21300000, guid: d00d190b5d1944c438b0dd91084fee93, type: 3}
    - {fileID: 21300000, guid: d0bd15208037f5a42bf875e0de52aabc, type: 3}
    - {fileID: 21300000, guid: 024ab7f8de500d34b9c4a67d156a7fc8, type: 3}
    - {fileID: 21300000, guid: fca3bc9a929e619448745bca2d443d34, type: 3}
    - {fileID: 21300000, guid: 6d2a5750f8b7ab34b9d4e01db7b8524f, type: 3}
    - {fileID: 21300000, guid: 297052c639f31bd4b9a75f3c9f886b46, type: 3}
    - {fileID: 21300000, guid: eec4480156b02434f9fc36956107ed30, type: 3}
    - {fileID: 21300000, guid: 3e650585eb7c3554baf0665eb56a3e04, type: 3}
    - {fileID: 21300000, guid: 9ac50caa764662043bf104d3ca706172, type: 3}
    - {fileID: 21300000, guid: 256d30f4cce6a9148b7af557f7ad6d59, type: 3}
    - {fileID: 21300000, guid: 289cdad772a83ed47950cb8d2a305099, type: 3}
    - {fileID: 21300000, guid: 418589c007bf43746837d2b042258514, type: 3}
    - {fileID: 21300000, guid: 88170114dda3f9147a81252615418b01, type: 3}
    - {fileID: 21300000, guid: 39635688faacf044e86d0593f49edc5c, type: 3}
    - {fileID: 21300000, guid: 96f13d8134e3e3c47834187ba1d9a852, type: 3}
    - {fileID: 21300000, guid: bfb9805ab0c82974ebb10d137f858d58, type: 3}
    - {fileID: 21300000, guid: 019178030e485664d86752e3e90b2dd4, type: 3}
    - {fileID: 21300000, guid: bc93e3b5a1fc33d4eb04d4a2bad32071, type: 3}
    - {fileID: 21300000, guid: a3645f6c42cdc6f4b9aa762ac43df1b9, type: 3}
    - {fileID: 21300000, guid: 2d8df748daf26f64fa071b8b7f8af6b3, type: 3}
    - {fileID: 21300000, guid: 1304c0326e114fd468e293a53b3a4398, type: 3}
    - {fileID: 21300000, guid: 587bdc27bc7cf2c468aecdd52afa0d9d, type: 3}
    - {fileID: 21300000, guid: 108d6a030794f5d468533517e07c8870, type: 3}
    - {fileID: 21300000, guid: b6e7143c29b6b104b9079db6824cd999, type: 3}
    - {fileID: 21300000, guid: 396e59d40ea62bd4eb6cfcb675c7baf6, type: 3}
    - {fileID: 21300000, guid: a0fd6ab00a32760439ee4dbf9c190f08, type: 3}
    - {fileID: 21300000, guid: 3a9e57f6354b8f1448a26f8855fe0900, type: 3}
    - {fileID: 21300000, guid: 6df7a190eff90ba43830fb357090acf8, type: 3}
    - {fileID: 21300000, guid: c1697da07017cae448f22e7fcd259c7b, type: 3}
    - {fileID: 21300000, guid: 5fab724bf9256ae48afc15eeaba3e778, type: 3}
    - {fileID: 21300000, guid: 5cb1dda4b79cf284ebaa30d40e0d0677, type: 3}
    - {fileID: 21300000, guid: ecdfb45f66c6f9f46b3cf7ebcbf5352e, type: 3}
    - {fileID: 21300000, guid: 9926c504336c6f24cb274e9dfda68436, type: 3}
    - {fileID: 21300000, guid: 58ad0a7aef7ef7b42983e9b7e799286d, type: 3}
    - {fileID: 21300000, guid: b4ebf69dafd587845af335749eb626ca, type: 3}
    - {fileID: 21300000, guid: 570cf3bed0e7a634f9f574be8f92037a, type: 3}
    - {fileID: 21300000, guid: 9f87275871b6d1b4d924340016200dda, type: 3}
    - {fileID: 21300000, guid: ec73d8b541b7bc94fba38a30d863a765, type: 3}
    - {fileID: 21300000, guid: f16d0778574369e4790986e7aba0c61f, type: 3}
    - {fileID: 21300000, guid: 0fbce5b1ab9125e4c820ec60b0c179fe, type: 3}
    - {fileID: 21300000, guid: abd25df140e5c464db0e63ae0a4afffa, type: 3}
    - {fileID: 21300000, guid: 26519a460cc572a42958767613e3140f, type: 3}
    - {fileID: 21300000, guid: bfc5027986791d740bf72626773d37cc, type: 3}
    - {fileID: 21300000, guid: 6971a249481b6354488924ca967b1721, type: 3}
    - {fileID: 21300000, guid: 5362de5463763194aa18410fa238e386, type: 3}
    - {fileID: 21300000, guid: fb844ecf110ffd64cb85187ae614c75d, type: 3}
    - {fileID: 21300000, guid: 873aca5ea1884e04faa804af859a7464, type: 3}
  m_AnimationClipSettings:
    serializedVersion: 2
    m_AdditiveReferencePoseClip: {fileID: 0}
    m_AdditiveReferencePoseTime: 0
    m_StartTime: 0
    m_StopTime: 4.416667
    m_OrientationOffsetY: 0
    m_Level: 0
    m_CycleOffset: 0
    m_HasAdditiveReferencePose: 0
    m_LoopTime: 1
    m_LoopBlend: 0
    m_LoopBlendOrientation: 0
    m_LoopBlendPositionY: 0
    m_LoopBlendPositionXZ: 0
    m_KeepOriginalOrientation: 0
    m_KeepOriginalPositionY: 1
    m_KeepOriginalPositionXZ: 0
    m_HeightFromFeet: 0
    m_Mirror: 0
  m_EditorCurves: []
  m_EulerEditorCurves: []
  m_HasGenericRootTransform: 0
  m_HasMotionFloatCurves: 0
  m_Events: []
